[
  {
    "id": "7",
    "email": "anita@atilaa.no",
    "encrypted_password": "$2a$11$gm02/UbQt6chzmSD1z1sCOtwRKqV6HZOETZO4vJZ7gfVnx9nDFkm2",
    "reset_password_token": null,
    "reset_password_sent_at": null,
    "remember_created_at": null,
    "sign_in_count": "5",
    "current_sign_in_at": "2018-04-04 12:11:58",
    "last_sign_in_at": "2018-04-04 12:11:36",
    "current_sign_in_ip": "217.149.113.6",
    "last_sign_in_ip": "217.149.113.6",
    "created_at": "2018-04-04 11:25:58",
    "updated_at": "2018-04-04 12:11:58",
    "firstname": "Anita",
    "lastname": "Øygard",
    "role": "reseller",
    "mobile": "90120598",
    "company_id": "2",
    "title": "A til Å ",
    "confirmation_token": "aF2CDtuVopt-L722sL8R",
    "confirmed_at": "2018-04-04 11:58:51",
    "confirmation_sent_at": "2018-04-04 11:25:58",
    "slack_username": "anita",
    "authy_id": "77954191",
    "last_sign_in_with_authy": "2018-04-04 12:11:58",
    "authy_enabled": "1"
  },

  ]
